{
 "uuid": "hide-first-child-in-left-box@prevete.ml",
 "name": "Hide first child in left box",
 "description": "An extension with an ambiguous name that hides the first widget (the first of the left box!) in your Gnome Shell panel, so if you did not modify your panel, it would hide the Activities button. Actually I wrote this because I could not find the code of the others 'hide activities'.",
 "shell-version": [ "3.30", "3.32" ],
 "url": "https://gitlab.com/tallero/hide-first-child-in-left-box"
}
